Lesson 2 Sentiment | Clean Air in the Time of COVID
…
mean(na.omit(s140$score))

## [1] -0.07255595

# performance
s140 <- s140 %>% 
  mutate(
    accurate_dict = case_when(
      polarity == -1 & score < 0 ~ T,
      polarity ==  0 & score == 0 ~ T,
      polarity ==  1 & score > 0 ~ T,
      T ~ F))
select(s140, polarity, score, accurate_dict)

## # A tibble: 498 x 3
##    polarity score accurate_dict
##       <dbl> <dbl> <lgl>        
##  1        1     1 TRUE         
##  2        1     1 TRUE         
##  3        1    -1 FALSE        
##  4        1     0 FALSE        
##  5        1     1 TRUE         
##  6        1     1 TRUE         
##  7       -1    -1 TRUE         
##  8        1   NaN FALSE        
##  9        1     1 TRUE         
## 10        1     1 TRUE         
## # … with 488 more rows
…
